STAT570 - Final Project
…
From our summary, we can see some strange values are present in the data. For instance there are some rows marked as “-1” in the Headquarters, Founded, Type_of_Ownership, Industry, Sector and Competitors columns.

Let’s see if this are the same rows or not:

Code

Uncleaned_DS_jobs[Uncleaned_DS_jobs$Headquarters == '-1',]

# A tibble: 31 × 15
   index Job_Title  Salary_Estimate Job_Description Rating Company_Name Location
   <dbl> <fct>      <fct>           <chr>            <dbl> <fct>        <fct>   
 1   154 ELISA RES… $90K-$109K (Gl… "Covaxx, a sub…     -1 "Covid-19 S… Hauppau…
 2   158 Machine L… $101K-$165K (G… "Overview\n\nR…     -1 "Radical Co… Reston,…
 3   258 Data Scie… $90K-$124K (Gl… "Full Time Dat…      5 "The Drive … New Yor…
 4   351 Data Scie… $122K-$146K (G… "About Our AI/…     -1 "Point72 Ve… Palo Al…
 5   357 Data Scie… $122K-$146K (G… "Job Overview:…     -1 "Hatch Data… San Fra…
 6   358 Data Scie… $122K-$146K (G… "Job Overview:…     -1 "Hatch Data… San Fra…
 7   359 Data Scie… $122K-$146K (G… "Job Overview:…     -1 "Hatch Data… San Fra…
 8   360 Data Scie… $122K-$146K (G… "Job Overview:…     -1 "Hatch Data… San Fra…
 9   361 Data Scie… $122K-$146K (G… "Job Overview:…     -1 "Hatch Data… San Fra…
10   362 Data Scie… $122K-$146K (G… "Job Overview:…     -1 "Hatch Data… San Fra…
# ℹ 21 more rows
# ℹ 8 more variables: Headquarters <fct>, Size <fct>, Founded <dbl>,
#   Type_of_Ownership <fct>, Industry <fct>, Sector <fct>, Revenue <fct>,
#   Competitors <fct>
